%YAML 1.1
%TAG !u! tag:unity3d.com,2011:
--- !u!1045 &1
EditorBuildSettings:
  m_ObjectHideFlags: 0
  serializedVersion: 2
  m_Scenes:
  - enabled: 0
    path: 
    guid: 00000000000000000000000000000000
  - enabled: 1
    path: Assets/Scenes/Main Menu.unity
    guid: 942d478cce3e6154bb1255f8c8c97094
  - enabled: 1
    path: Assets/Scenes/Main.unity
    guid: 8aabd5953b81aec4caf2f9d25acf69a5
  - enabled: 1
    path: Assets/Scenes/Level2.unity
    guid: 21bca71b7fec12346929bbe5859354ee
  - enabled: 1
    path: Assets/Scenes/Level3.unity
    guid: 304e3964b69aa2842bba66bcea9502e6
  - enabled: 1
    path: Assets/Scenes/Victory.unity
    guid: 72ac6611f86b6d54d8588c0da8cc333b
  m_configObjects: {}
